21 units
10 inputs
0 0 0 0
1 1 0 0
2 1 0 1
3 1 0 2
4 1 0 3
5 1 0 4
6 1 0 5
7 1 0 6
8 1 0 7
9 1 0 8

10 hiddens
10 2 0 0
11 2 0 1
12 2 0 2
13 2 0 3
14 2 0 4
15 3 0 0
16 3 0 1
17 3 0 2
18 3 0 3
19 3 0 4

1 outputs
20 4 0 0

120 conns
1 10 -1
1 11 -1
1 12 -1
1 13 -1
1 14 -1
2 10 -1
2 11 -1
2 12 -1
2 13 -1
2 14 -1
3 10 -1
3 11 -1
3 12 -1
3 13 -1
3 14 -1
4 10 -1
4 11 -1
4 12 -1
4 13 -1
4 14 -1
5 10 -1
5 11 -1
5 12 -1
5 13 -1
5 14 -1
6 10 -1
6 11 -1
6 12 -1
6 13 -1
6 14 -1
7 10 -1
7 11 -1
7 12 -1
7 13 -1
7 14 -1
8 10 -1
8 11 -1
8 12 -1
8 13 -1
8 14 -1
9 10 -1
9 11 -1
9 12 -1
9 13 -1
9 14 -1
0 10 -1
0 11 -1
0 12 -1
0 13 -1
0 14 -1
1 15 -1
1 16 -1
1 17 -1
1 18 -1
1 19 -1
2 15 -1
2 16 -1
2 17 -1
2 18 -1
2 19 -1
3 15 -1
3 16 -1
3 17 -1
3 18 -1
3 19 -1
4 15 -1
4 16 -1
4 17 -1
4 18 -1
4 19 -1
5 15 -1
5 16 -1
5 17 -1
5 18 -1
5 19 -1
6 15 -1
6 16 -1
6 17 -1
6 18 -1
6 19 -1
7 15 -1
7 16 -1
7 17 -1
7 18 -1
7 19 -1
8 15 -1
8 16 -1
8 17 -1
8 18 -1
8 19 -1
9 15 -1
9 16 -1
9 17 -1
9 18 -1
9 19 -1
0 15 -1
0 16 -1
0 17 -1
0 18 -1
0 19 -1
1 20 -1
2 20 -1
3 20 -1
4 20 -1
5 20 -1
6 20 -1
7 20 -1
8 20 -1
9 20 -1
10 20 -1
11 20 -1
12 20 -1
13 20 -1
14 20 -1
15 20 -1
16 20 -1
17 20 -1
18 20 -1
19 20 -1
0 20 -1
