16 units
10 inputs
0 0 0 0
1 1 0 0
2 1 0 1
3 1 0 2
4 1 0 3
5 1 0 4
6 1 0 5
7 1 0 6
8 1 0 7
9 1 0 8

5 hiddens
10 2 0 0
11 2 0 1
12 2 0 2
13 2 0 3
14 2 0 4

1 outputs
15 3 0 0

56 conns
1 10 -1
1 11 -1
1 12 -1
1 13 -1
1 14 -1
2 10 -1
2 11 -1
2 12 -1
2 13 -1
2 14 -1
3 10 -1
3 11 -1
3 12 -1
3 13 -1
3 14 -1
4 10 -1
4 11 -1
4 12 -1
4 13 -1
4 14 -1
5 10 -1
5 11 -1
5 12 -1
5 13 -1
5 14 -1
6 10 -1
6 11 -1
6 12 -1
6 13 -1
6 14 -1
7 10 -1
7 11 -1
7 12 -1
7 13 -1
7 14 -1
8 10 -1
8 11 -1
8 12 -1
8 13 -1
8 14 -1
9 10 -1
9 11 -1
9 12 -1
9 13 -1
9 14 -1
0 10 -1
0 11 -1
0 12 -1
0 13 -1
0 14 -1
10 15 -1
11 15 -1
12 15 -1
13 15 -1
14 15 -1
0 15 -1
